Predicción salarios NBA
…
nba <- read_csv("data/nba.csv")

## Parsed with column specification:
## cols(
##   .default = col_double(),
##   Player = col_character(),
##   NBA_Country = col_character(),
##   Tm = col_character()
## )

## See spec(...) for full column specifications.

nba

## # A tibble: 485 x 28
##    Player Salary NBA_Country NBA_DraftNumber   Age Tm        G    MP   PER `TS%`
##    <chr>   <dbl> <chr>                 <dbl> <dbl> <chr> <dbl> <dbl> <dbl> <dbl>
##  1 Zhou ~ 8.16e5 China                    43    22 HOU      16    87   0.6 0.303
##  2 Zaza ~ 3.48e6 Georgia                  42    33 GSW      66   937  16.8 0.608
##  3 Zach ~ 1.23e7 USA                      19    36 SAC      59  1508  17.3 0.529
##  4 Zach ~ 3.20e6 USA                      13    22 CHI      24   656  14.6 0.499
##  5 Zach ~ 3.06e6 USA                      10    20 POR      62   979   8.2 0.487
##  6 Yogi ~ 1.31e6 USA                      62    24 DAL      79  2238  11.5 0.543
##  7 Xavie~ 7.42e4 USA                      62    30 BOS       2     7  -4.9 0    
##  8 Xavie~ 4.61e4 Canada                   62    23 MEM       5   118   0.9 0.315
##  9 Wilso~ 1.20e7 USA                      23    30 DEN      70  2200  11.1 0.543
## 10 Willy~ 1.44e6 Spain                    35    23 TOT      45   430  20.6 0.592
## # ... with 475 more rows, and 18 more variables: `3PAr` <dbl>, FTr <dbl>,
## #   `ORB%` <dbl>, `DRB%` <dbl>, `TRB%` <dbl>, `AST%` <dbl>, `STL%` <dbl>,
## #   `BLK%` <dbl>, `TOV%` <dbl>, `USG%` <dbl>, OWS <dbl>, DWS <dbl>, WS <dbl>,
## #   `WS/48` <dbl>, OBPM <dbl>, DBPM <dbl>, BPM <dbl>, VORP <dbl>
…
